<svg width="94" height="80" viewBox="0 0 94 80" fill="none" xmlns="http://www.w3.org/2000/svg">
<path opacity="0.14" d="M55.2828 52.0938L48.818 57.9408C46.8891 59.6854 43.8057 58.3167 43.8057 55.7159V21.9495C43.8057 15.322 49.1783 9.94946 55.8057 9.94946H81.4913C88.1187 9.94946 93.4913 15.322 93.4913 21.9494V38.8021C93.4913 45.4295 88.1187 50.8021 81.4913 50.8021H58.6367C57.3973 50.8021 56.202 51.2624 55.2828 52.0938Z" fill="url(#paint0_linear)" stroke="url(#paint1_linear)"/>
<path d="M16.9448 45.2439C15.7687 45.2439 14.8154 46.1971 14.8154 47.3732C14.8154 48.5494 15.7687 49.5026 16.9448 49.5026H17.1223C18.2984 49.5026 19.2516 48.5494 19.2516 47.3732C19.2516 46.1971 18.2984 45.2439 17.1223 45.2439H16.9448ZM24.3454 45.2439C23.1692 45.2439 22.216 46.1971 22.216 47.3732C22.216 48.5494 23.1692 49.5026 24.3454 49.5026H24.5226C25.6987 49.5026 26.652 48.5494 26.652 47.3732C26.652 46.1971 25.6987 45.2439 24.5226 45.2439H24.3454ZM86.8851 11.2331V35.2007C86.8851 40.8755 82.3349 45.4804 76.66 45.4804H49.045C48.5051 45.4804 48.0605 45.4774 47.6886 45.4696C47.2989 45.4615 46.8603 45.4584 46.6892 45.4774C46.5111 45.5957 46.0743 45.9958 45.6534 46.3835C45.4866 46.5371 45.2978 46.706 45.0941 46.892L37.2811 54.0131C36.6579 54.5817 35.7359 54.7288 34.9641 54.3886C34.1923 54.0481 33.6505 53.2839 33.6505 52.4405V29.865H11.3441C8.01703 29.865 5.25877 32.5913 5.25877 35.9179V59.8855C5.25877 63.2123 8.01726 65.8279 11.3441 65.8279H42.1903C42.7215 65.8279 43.2183 66.0718 43.6106 66.43L49.9758 72.2986V52.0602C49.9758 50.8841 50.9291 49.9309 52.1052 49.9309C53.2813 49.9309 54.2346 50.8841 54.2346 52.0602V77.125C54.2346 77.9684 53.7519 78.7213 52.9799 79.0618C52.7038 79.1836 52.4265 79.2316 52.1362 79.2316C51.6147 79.2316 51.1004 79.0175 50.7003 78.6522L41.3648 70.0864H11.3441C5.66903 70.0864 1 65.5603 1 59.8853V35.9179C1 30.2431 5.66903 25.6062 11.3441 25.6062H33.6505V11.2331C33.6505 5.55806 38.3553 1 44.0303 1H76.6603C82.3349 1 86.8851 5.55806 86.8851 11.2331ZM82.6263 11.2331C82.6263 7.9063 79.9866 5.25877 76.66 5.25877H44.0303C40.7035 5.25877 37.9093 7.9063 37.9093 11.2331V27.7555V47.6141L42.1905 43.745C42.3888 43.564 42.611 43.3984 42.7731 43.2489C44.7281 41.4474 45.2282 41.1595 47.7783 41.212C48.1261 41.2193 48.5404 41.2219 49.045 41.2219H76.66C79.9866 41.2219 82.6263 38.5275 82.6263 35.201V11.2331Z" fill="url(#paint2_linear)"/>
<path fill-rule="evenodd" clip-rule="evenodd" d="M43.6105 66.4299L49.9757 72.2985V52.0601C49.9757 50.884 50.929 49.9308 52.1051 49.9308C53.2812 49.9308 54.2345 50.884 54.2345 52.0601V77.1249C54.2345 77.9683 53.7518 78.7212 52.9798 79.0617C52.7037 79.1835 52.4264 79.2315 52.1361 79.2315C51.6146 79.2315 51.1003 79.0174 50.7002 78.6521L41.3647 70.0863H11.344C5.66893 70.0863 0.999902 65.5602 0.999902 59.8852V35.9178C0.999902 30.243 5.66893 25.6061 11.344 25.6061H33.6504V11.233C33.6504 5.55796 38.3552 0.999902 44.0302 0.999902H76.6602C82.3348 0.999902 86.885 5.55796 86.885 11.233V35.2006C86.885 40.8754 82.3348 45.4803 76.66 45.4803H49.0449C48.505 45.4803 48.0604 45.4773 47.6885 45.4695C47.2988 45.4614 46.8602 45.4583 46.6891 45.4773C46.511 45.5956 46.0742 45.9957 45.6533 46.3834C45.5596 46.4697 45.4589 46.5609 45.3525 46.6572C45.2696 46.7322 45.1832 46.8104 45.094 46.8919L37.281 54.013C36.6578 54.5816 35.7358 54.7287 34.964 54.3885C34.1922 54.048 33.6504 53.2838 33.6504 52.4404V29.8649H11.344C8.01693 29.8649 5.25867 32.5912 5.25867 35.9178V59.8854C5.25867 63.2122 8.01717 65.8278 11.344 65.8278H42.1902C42.7214 65.8278 43.2182 66.0717 43.6105 66.4299ZM33.0504 30.4649H11.344C8.34416 30.4649 5.85867 32.9267 5.85867 35.9178V59.8854C5.85867 62.8624 8.3298 65.2278 11.344 65.2278H42.1902C42.9079 65.2278 43.5428 65.5556 44.0151 65.9869L44.0172 65.9888L49.3757 70.9292V52.0601C49.3757 50.5526 50.5976 49.3308 52.1051 49.3308C53.6126 49.3308 54.8345 50.5526 54.8345 52.0601V77.1249C54.8345 78.202 54.2151 79.1726 53.2219 79.6106C52.8581 79.7711 52.4964 79.8315 52.1361 79.8315C51.4511 79.8315 50.7956 79.5517 50.2956 79.0952L50.2945 79.0942L41.1312 70.6863H11.344C5.34848 70.6863 0.399902 65.9024 0.399902 59.8852V35.9178C0.399902 29.9091 5.34 25.0061 11.344 25.0061H33.0504V11.233C33.0504 5.21554 38.035 0.399902 44.0302 0.399902H76.6602C82.6667 0.399902 87.485 5.22721 87.485 11.233V35.2006C87.485 41.2026 82.6703 46.0803 76.66 46.0803H49.0449C48.5033 46.0803 48.054 46.0773 47.6759 46.0693C47.378 46.0632 47.0886 46.0611 46.9069 46.0657C46.845 46.1168 46.7626 46.1875 46.6604 46.2782C46.4812 46.4371 46.2708 46.6304 46.0598 46.8247C45.9658 46.9113 45.8605 47.0066 45.7514 47.1054C45.6683 47.1806 45.583 47.2579 45.4985 47.335L37.6854 54.4563C37.6853 54.4563 37.6855 54.4562 37.6854 54.4563C36.8851 55.1862 35.7092 55.3727 34.722 54.9375C33.7525 54.5098 33.0504 53.5424 33.0504 52.4404V30.4649ZM42.3664 42.8075C43.3309 41.9188 44.0188 41.3203 44.819 40.9823C45.634 40.6382 46.5093 40.5856 47.7905 40.612C48.132 40.6192 48.5417 40.6218 49.0449 40.6218H76.66C79.648 40.6218 82.0262 38.2032 82.0262 35.2009V11.233C82.0262 8.23653 79.6541 5.85867 76.66 5.85867H44.0302C41.0157 5.85867 38.5092 8.25634 38.5092 11.233V46.263L41.7859 43.3018C41.7861 43.3016 41.7857 43.3019 41.7859 43.3018C41.8981 43.1995 42.0152 43.103 42.1142 43.0216C42.2189 42.9355 42.3005 42.8682 42.3664 42.8075ZM42.1904 43.7449L37.9092 47.614V11.233C37.9092 7.9062 40.7034 5.25867 44.0302 5.25867H76.66C79.9865 5.25867 82.6262 7.9062 82.6262 11.233V35.2009C82.6262 38.5274 79.9865 41.2218 76.66 41.2218H49.0449C48.5403 41.2218 48.126 41.2192 47.7782 41.2119C45.2281 41.1594 44.728 41.4473 42.773 43.2488C42.6939 43.3217 42.6006 43.3984 42.5028 43.4789C42.3999 43.5634 42.292 43.6522 42.1904 43.7449ZM14.2153 47.3731C14.2153 45.8656 15.4372 44.6438 16.9447 44.6438H17.1222C18.6297 44.6438 19.8516 45.8656 19.8516 47.3731C19.8516 48.8806 18.6297 50.1025 17.1222 50.1025H16.9447C15.4372 50.1025 14.2153 48.8806 14.2153 47.3731ZM21.6159 47.3731C21.6159 45.8656 22.8378 44.6438 24.3453 44.6438H24.5225C26.03 44.6438 27.2519 45.8656 27.2519 47.3731C27.2519 48.8806 26.03 50.1025 24.5225 50.1025H24.3453C22.8378 50.1025 21.6159 48.8806 21.6159 47.3731ZM14.8153 47.3731C14.8153 46.197 15.7686 45.2438 16.9447 45.2438H17.1222C18.2983 45.2438 19.2516 46.197 19.2516 47.3731C19.2516 48.5493 18.2983 49.5025 17.1222 49.5025H16.9447C15.7686 49.5025 14.8153 48.5493 14.8153 47.3731ZM22.2159 47.3731C22.2159 46.197 23.1691 45.2438 24.3453 45.2438H24.5225C25.6986 45.2438 26.6519 46.197 26.6519 47.3731C26.6519 48.5493 25.6986 49.5025 24.5225 49.5025H24.3453C23.1691 49.5025 22.2159 48.5493 22.2159 47.3731Z" fill="url(#paint3_linear)"/>
<defs>
<linearGradient id="paint0_linear" x1="68.6485" y1="9.94946" x2="68.6485" y2="62.4742" gradientUnits="userSpaceOnUse">
<stop stop-color="#0C64D3"/>
<stop offset="1" stop-color="#2A89FF"/>
</linearGradient>
<linearGradient id="paint1_linear" x1="68.6485" y1="9.94946" x2="68.6485" y2="62.4742" gradientUnits="userSpaceOnUse">
<stop stop-color="#0C64D3"/>
<stop offset="1" stop-color="#2A89FF"/>
</linearGradient>
<linearGradient id="paint2_linear" x1="43.9426" y1="1" x2="43.9426" y2="79.2316" gradientUnits="userSpaceOnUse">
<stop stop-color="#0C64D3"/>
<stop offset="1" stop-color="#2A89FF"/>
</linearGradient>
<linearGradient id="paint3_linear" x1="43.9425" y1="0.399902" x2="43.9425" y2="79.8315" gradientUnits="userSpaceOnUse">
<stop stop-color="#0C64D3"/>
<stop offset="1" stop-color="#2A89FF"/>
</linearGradient>
</defs>
</svg>
