<svg width="42" height="42" viewBox="0 0 42 42" fill="none" xmlns="http://www.w3.org/2000/svg">
<ellipse cx="20.9132" cy="21.1001" rx="14.9381" ry="14.7514" fill="#FFA82E"/>
<path d="M40.8268 20.7267C40.8268 31.613 31.9197 40.4534 20.9134 40.4534C9.90706 40.4534 1 31.613 1 20.7267C1 9.84037 9.90706 1 20.9134 1C31.9197 1 40.8268 9.84037 40.8268 20.7267Z" stroke="#FFA82E" stroke-width="2"/>
<path d="M24.9557 22.6382L20.6277 25.3985C19.2963 26.2476 17.5522 25.2913 17.5522 23.7122V18.2038C17.5522 16.6265 19.2928 15.6699 20.6243 16.5154L24.9524 19.2636C26.1882 20.0482 26.19 21.8511 24.9557 22.6382Z" fill="white"/>
</svg>
